<svg width="411" height="474" viewBox="0 0 411 474" fill="none" xmlns="http://www.w3.org/2000/svg">
<path d="M117.611 436.659C116.072 436.182 114.643 435.406 113.404 434.376C112.166 433.345 111.143 432.08 110.394 430.654L48.4169 311.17C40.6756 296.079 39.2017 278.542 44.3153 262.37C49.4289 246.197 60.717 232.696 75.7275 224.798C90.8072 216.991 108.367 215.482 124.558 220.601C140.749 225.721 154.25 237.051 162.099 252.109L170.719 268.7L187.311 260.081C202.391 252.273 219.951 250.764 236.142 255.883C252.333 261.003 265.833 272.334 273.683 287.391C281.424 302.483 282.898 320.02 277.784 336.192C272.671 352.364 261.383 365.866 246.372 373.763L126.969 435.894C125.536 436.631 123.972 437.078 122.366 437.209C120.76 437.341 119.144 437.154 117.611 436.659ZM117.179 243.939C112.245 242.355 107.046 241.765 101.882 242.204C96.7186 242.643 91.6934 244.102 87.0978 246.496C77.808 251.354 70.819 259.691 67.6585 269.687C64.498 279.682 65.4232 290.522 70.2316 299.837L126.542 408.413L235.039 351.949C244.329 347.091 251.318 338.754 254.478 328.758C257.638 318.763 256.713 307.923 251.905 298.608C246.86 289.537 238.536 282.74 228.639 279.61C218.743 276.481 208.024 277.257 198.681 281.779L171.145 296.182C169.714 296.933 168.149 297.393 166.539 297.536C164.929 297.679 163.307 297.501 161.767 297.014C160.226 296.527 158.797 295.739 157.562 294.697C156.327 293.655 155.31 292.378 154.571 290.941L140.322 263.326C137.938 258.724 134.665 254.641 130.693 251.314C126.72 247.986 122.127 245.479 117.179 243.939Z" fill="#D90429" fill-opacity="0.02"/>
<path d="M269.781 206.917C268.926 206.652 268.132 206.221 267.444 205.649C266.756 205.076 266.188 204.373 265.772 203.581L231.34 137.201C227.039 128.817 226.22 119.074 229.061 110.09C231.902 101.105 238.173 93.6043 246.512 89.2167C254.89 84.8793 264.646 84.0407 273.641 86.8849C282.636 89.7291 290.136 96.0239 294.497 104.389L299.286 113.607L308.503 108.818C316.881 104.481 326.636 103.642 335.631 106.486C344.626 109.33 352.126 115.625 356.487 123.991C360.788 132.375 361.607 142.117 358.766 151.102C355.925 160.087 349.654 167.587 341.315 171.975L274.98 206.492C274.184 206.902 273.315 207.15 272.423 207.223C271.531 207.296 270.633 207.192 269.781 206.917ZM269.541 99.8506C266.8 98.9702 263.911 98.6425 261.043 98.8863C258.174 99.1301 255.382 99.9407 252.829 101.271C247.668 103.97 243.785 108.602 242.03 114.155C240.274 119.707 240.788 125.73 243.459 130.905L274.743 191.225L335.019 159.856C340.18 157.157 344.062 152.525 345.818 146.972C347.574 141.419 347.06 135.397 344.389 130.222C341.586 125.183 336.961 121.406 331.463 119.668C325.965 117.929 320.01 118.36 314.82 120.872L299.522 128.874C298.727 129.291 297.858 129.547 296.963 129.626C296.069 129.706 295.168 129.607 294.312 129.337C293.456 129.066 292.662 128.628 291.976 128.049C291.29 127.47 290.725 126.761 290.314 125.963L282.398 110.621C281.074 108.064 279.256 105.796 277.049 103.947C274.842 102.099 272.29 100.706 269.541 99.8506V99.8506Z" fill="#D90429" fill-opacity="0.02"/>
<path d="M361.146 65.3688C360.719 65.2363 360.322 65.0208 359.978 64.7346C359.634 64.4483 359.35 64.097 359.142 63.7007L341.926 30.5109C339.775 26.3187 339.366 21.4474 340.786 16.9551C342.207 12.4628 345.342 8.71244 349.512 6.51863C353.701 4.34992 358.579 3.93066 363.076 5.35274C367.574 6.77483 371.324 9.92223 373.504 14.1049L375.899 18.7137L380.507 16.3193C384.696 14.1506 389.574 13.7313 394.071 15.1534C398.569 16.5755 402.319 19.7229 404.499 23.9056C406.65 28.0977 407.059 32.969 405.639 37.4613C404.218 41.9536 401.083 45.704 396.913 47.8978L363.746 65.1564C363.348 65.3611 362.913 65.4853 362.467 65.5217C362.021 65.5582 361.572 65.5062 361.146 65.3688ZM361.026 11.8356C359.656 11.3954 358.211 11.2315 356.777 11.3534C355.343 11.4754 353.947 11.8807 352.67 12.5459C350.09 13.8951 348.148 16.2111 347.271 18.9876C346.393 21.764 346.65 24.7751 347.985 27.3627L363.627 57.5227L393.765 41.8381C396.346 40.4889 398.287 38.1729 399.165 35.3964C400.043 32.62 399.786 29.6088 398.45 27.0213C397.049 24.5016 394.736 22.6134 391.987 21.7442C389.238 20.875 386.261 21.0905 383.666 22.3465L376.017 26.3474C375.619 26.556 375.184 26.6838 374.737 26.7235C374.29 26.7632 373.84 26.7139 373.412 26.5786C372.984 26.4432 372.587 26.2245 372.244 25.935C371.901 25.6454 371.618 25.2908 371.413 24.8917L367.455 17.2207C366.793 15.9425 365.884 14.8083 364.78 13.884C363.677 12.9596 362.401 12.2634 361.026 11.8356V11.8356Z" fill="#D90429" fill-opacity="0.02"/>
</svg>
